%YAML 1.1
%TAG !u! tag:unity3d.com,2011:
--- !u!114 &11400000
MonoBehaviour:
  m_ObjectHideFlags: 0
  m_CorrespondingSourceObject: {fileID: 0}
  m_PrefabInstance: {fileID: 0}
  m_PrefabAsset: {fileID: 0}
  m_GameObject: {fileID: 0}
  m_Enabled: 1
  m_EditorHideFlags: 0
  m_Script: {fileID: 11500000, guid: 94760e9b8377115459354810e824bb68, type: 3}
  m_Name: New From Database
  m_EditorClassIdentifier: 
  froms:
  - id: 0
    fromName: "\u0420\u043E\u0441\u0441\u0438\u044F"
    vvpName: 
    popName: 
    squreName: 
  - id: 1
    fromName: "\u0418\u0442\u0430\u043B\u0438\u044F"
    vvpName: 
    popName: 
    squreName: 
  - id: 2
    fromName: "\u0424\u0440\u0430\u043D\u0446\u0438\u044F"
    vvpName: 
    popName: 
    squreName: 
  currentFrom:
    id: 2
    fromName: "\u0424\u0440\u0430\u043D\u0446\u0438\u044F"
    vvpName: 
    popName: 
    squreName: 
